{
    "/scripts/app.js": "/scripts/app.js?id=d0f298308c566fb4b433",
    "/styles/app.css": "/styles/app.css?id=c0c06476adc3036c8f78",
    "/scripts/app.min.js": "/scripts/app.min.js?id=d0f298308c566fb4b433",
    "/styles/app.min.css": "/styles/app.min.css?id=c0c06476adc3036c8f78"
}
